@startuml

title __GUI's Class Diagram__\n

  namespace fr.cnam.foad.nfa035.badges.gui {
    class fr.cnam.foad.nfa035.badges.gui.AddBadgeDialog {
        - buttonCancel : JButton
        - buttonOK : JButton
        - codeSerie : JTextField
        - contentPane : JPanel
        - dateDebut : JXDatePicker
        - dateFin : JXDatePicker
        - fileChooser : JFileChooser
        + AddBadgeDialog()
        + getIcon()
        {static} + main()
        + propertyChange()
        + setCaller()
        + setDao()
        - onCancel()
        - onOK()
        - validateForm()
    }
  }
  

  namespace fr.cnam.foad.nfa035.badges.gui {
    class fr.cnam.foad.nfa035.badges.gui.BadgeWalletGUI {
        ~ tableList : List<DigitalBadge>
        {static} - RESOURCES_PATH : String
        - button1 : JButton
        - panelBas : JPanel
        - panelHaut : JPanel
        - panelImageContainer : JPanel
        - panelParent : JPanel
        - scrollBas : JScrollPane
        - scrollHaut : JScrollPane
        - table1 : JTable
        + BadgeWalletGUI()
        + getBadge()
        + getIcon()
        {static} + main()
        + setAddedBadge()
        - createUIComponents()
        - loadBadge()
        - setCreatedUIFields()
    }
  }
  

  fr.cnam.foad.nfa035.badges.gui.AddBadgeDialog .up.|> java.beans.PropertyChangeListener
  fr.cnam.foad.nfa035.badges.gui.AddBadgeDialog -up-|> javax.swing.JDialog
  fr.cnam.foad.nfa035.badges.gui.AddBadgeDialog o-- fr.cnam.foad.nfa035.badges.wallet.model.DigitalBadge : badge
  fr.cnam.foad.nfa035.badges.gui.AddBadgeDialog o-- fr.cnam.foad.nfa035.badges.gui.BadgeWalletGUI : caller
  fr.cnam.foad.nfa035.badges.gui.AddBadgeDialog o-- fr.cnam.foad.nfa035.badges.wallet.dao.DirectAccessBadgeWalletDAO : dao
  fr.cnam.foad.nfa035.badges.gui.BadgeWalletGUI o-- fr.cnam.foad.nfa035.badges.gui.AddBadgeDialog : dialog
  fr.cnam.foad.nfa035.badges.gui.BadgeWalletGUI o-- fr.cnam.foad.nfa035.badges.wallet.model.DigitalBadge : badge
  fr.cnam.foad.nfa035.badges.gui.BadgeWalletGUI o-- fr.cnam.foad.nfa035.badges.gui.components.BadgePanel : badgePanel
  fr.cnam.foad.nfa035.badges.gui.BadgeWalletGUI o-- fr.cnam.foad.nfa035.badges.wallet.dao.DirectAccessBadgeWalletDAO : dao
  fr.cnam.foad.nfa035.badges.gui.BadgeWalletGUI o-- fr.cnam.foad.nfa035.badges.gui.model.BadgesModel : tableModel


right footer


PlantUML diagram generated by SketchIt! (https://bitbucket.org/pmesmeur/sketch.it)
For more information about this tool, please contact philippe.mesmeur@gmail.com
endfooter

@enduml
